[
  {
    "id":1,
    "active": false,
    "nameServices": "Estrategia Y Marketing",
    "color": "#d01d00",
    "icon": "binoculars",
    "category": [
      {
        "idCategory": 1,
        "active": false,
        "nameCategory": "Desarrollo De Negocios",
        "subcategory": [
          {
            "idSubcategory": 1,
            "active": false,
            "nameSubCategory": "Marca Líder"
          },
          {
            "idSubcategory": 2,
            "active": false,
            "nameSubCategory": "Empresa Grande"
          }
        ]
      },
      {
        "idCategory": 2,
        "active": false,
        "nameCategory": "Marca e Imagen Corporativa / Branding",
        "subcategory": [
          {
            "idSubcategory": 1,
            "active": false,
            "nameSubCategory": "Sin informacion"
          }
        ]
      }
    ]
  },
  {
    "id":2,
    "active": false,
    "nameServices": "Diseño Y Creatividad",
    "color": "#fcb040",
    "icon": "eye",
    "category": [
      {
        "idCategory": 1,
        "active": false,
        "nameCategory": "Creación de Marca e Identidad Corporativa",
        "subcategory": [
          {
            "idSubcategory": 1,
            "active": false,
            "nameSubCategory": "Sin informacion"
          }
        ]
      },
      {
        "idCategory": 2,
        "active": false,
        "nameCategory": "Diseño de Aplicaciones ",
        "subcategory": [
          {
            "idSubcategory": 1,
            "active": false,
            "nameSubCategory": "Android"
          },
          {
            "idSubcategory": 2,
            "active": false,
            "nameSubCategory": "IOS"
          },
          {
            "idSubcategory": 3,
            "active": false,
            "nameSubCategory": "Desktop"
          }
        ]
      }
    ]
  },
  {
    "id":3,
    "active": false,
    "nameServices": "Pubblicidad Y Campañas",
    "color": "#0e76bc",
    "icon": "thumbs-up",
    "category": [
      {
        "idCategory": 1,
        "active": false,
        "nameCategory": "Creatividad Publicitaria",
        "subcategory": [
          {
            "idSubcategory": 1,
            "active": false,
            "nameSubCategory": "Sin informacion"
          }
        ]
      },
      {
        "idCategory": 2,
        "active": false,
        "nameCategory": "Gestión de Campañas Publicitaria ",
        "subcategory": [
          {
            "idSubcategory": 1,
            "active": false,
            "nameSubCategory": "Pay Per Click (PPC)"
          },
          {
            "idSubcategory": 2,
            "active": false,
            "nameSubCategory": "Otra"
          }
        ]
      }
    ]
  },
  {
    "id":4,
    "active": false,
    "nameServices": "Programacion y Tecnologías",
    "color": "#9f1f63",
    "icon": "code",
    "category": [
      {
        "idCategory": 1,
        "active": false,
        "nameCategory": "Interfaz de Usuario - Diseño UI / Front-End",
        "subcategory": [
          {
            "idSubcategory": 1,
            "active": false,
            "nameSubCategory": "Sin informacion"
          }
        ]
      },
      {
        "idCategory": 2,
        "active": false,
        "nameCategory": "Programacion Web",
        "subcategory": [
          {
            "idSubcategory": 1,
            "active": false,
            "nameSubCategory": "WebSite"
          },
          {
            "idSubcategory": 2,
            "active": false,
            "nameSubCategory": "Landing Page"
          },
          {
            "idSubcategory": 3,
            "active": false,
            "nameSubCategory": "Blog"
          }
        ]
      }
    ]
  }
]